%YAML 1.1
%TAG !u! tag:unity3d.com,2011:
--- !u!1001 &2586026505238828758
PrefabInstance:
  m_ObjectHideFlags: 0
  serializedVersion: 2
  m_Modification:
    m_TransformParent: {fileID: 0}
    m_Modifications:
    - target: {fileID: 2521378164126035031, guid: f26b3b962f1c9475a8e7ba092676283b, type: 3}
      propertyPath: m_LocalScale.x
      value: 3
      objectReference: {fileID: 0}
    - target: {fileID: 2521378164126035031, guid: f26b3b962f1c9475a8e7ba092676283b, type: 3}
      propertyPath: m_LocalScale.y
      value: 6
      objectReference: {fileID: 0}
    - target: {fileID: 2521378164126035031, guid: f26b3b962f1c9475a8e7ba092676283b, type: 3}
      propertyPath: m_LocalScale.z
      value: 3
      objectReference: {fileID: 0}
    - target: {fileID: 2521378164126035031, guid: f26b3b962f1c9475a8e7ba092676283b, type: 3}
      propertyPath: m_LocalPosition.x
      value: -0.99003
      objectReference: {fileID: 0}
    - target: {fileID: 2521378164126035031, guid: f26b3b962f1c9475a8e7ba092676283b, type: 3}
      propertyPath: m_LocalPosition.y
      value: 3.7587
      objectReference: {fileID: 0}
    - target: {fileID: 2521378164126035031, guid: f26b3b962f1c9475a8e7ba092676283b, type: 3}
      propertyPath: m_LocalPosition.z
      value: -0.056216
      objectReference: {fileID: 0}
    - target: {fileID: 8438448899144161500, guid: f26b3b962f1c9475a8e7ba092676283b, type: 3}
      propertyPath: m_RootOrder
      value: 0
      objectReference: {fileID: 0}
    - target: {fileID: 8438448899144161500, guid: f26b3b962f1c9475a8e7ba092676283b, type: 3}
      propertyPath: m_LocalPosition.x
      value: 9.149994
      objectReference: {fileID: 0}
    - target: {fileID: 8438448899144161500, guid: f26b3b962f1c9475a8e7ba092676283b, type: 3}
      propertyPath: m_LocalPosition.y
      value: 5.1
      objectReference: {fileID: 0}
    - target: {fileID: 8438448899144161500, guid: f26b3b962f1c9475a8e7ba092676283b, type: 3}
      propertyPath: m_LocalPosition.z
      value: -14.26
      objectReference: {fileID: 0}
    - target: {fileID: 8438448899144161500, guid: f26b3b962f1c9475a8e7ba092676283b, type: 3}
      propertyPath: m_LocalRotation.w
      value: -0.79133207
      objectReference: {fileID: 0}
    - target: {fileID: 8438448899144161500, guid: f26b3b962f1c9475a8e7ba092676283b, type: 3}
      propertyPath: m_LocalRotation.x
      value: -0
      objectReference: {fileID: 0}
    - target: {fileID: 8438448899144161500, guid: f26b3b962f1c9475a8e7ba092676283b, type: 3}
      propertyPath: m_LocalRotation.y
      value: 0.6113866
      objectReference: {fileID: 0}
    - target: {fileID: 8438448899144161500, guid: f26b3b962f1c9475a8e7ba092676283b, type: 3}
      propertyPath: m_LocalRotation.z
      value: -0
      objectReference: {fileID: 0}
    - target: {fileID: 8438448899144161500, guid: f26b3b962f1c9475a8e7ba092676283b, type: 3}
      propertyPath: m_LocalEulerAnglesHint.x
      value: 0
      objectReference: {fileID: 0}
    - target: {fileID: 8438448899144161500, guid: f26b3b962f1c9475a8e7ba092676283b, type: 3}
      propertyPath: m_LocalEulerAnglesHint.y
      value: 284.62
      objectReference: {fileID: 0}
    - target: {fileID: 8438448899144161500, guid: f26b3b962f1c9475a8e7ba092676283b, type: 3}
      propertyPath: m_LocalEulerAnglesHint.z
      value: 0
      objectReference: {fileID: 0}
    - target: {fileID: 9101973017687638630, guid: f26b3b962f1c9475a8e7ba092676283b, type: 3}
      propertyPath: m_Name
      value: Wall_Torch_001 (1) Variant
      objectReference: {fileID: 0}
    m_RemovedComponents: []
  m_SourcePrefab: {fileID: 100100000, guid: f26b3b962f1c9475a8e7ba092676283b, type: 3}
