%YAML 1.1
%TAG !u! tag:unity3d.com,2011:
--- !u!1045 &1
EditorBuildSettings:
  m_ObjectHideFlags: 0
  serializedVersion: 2
  m_Scenes:
  - enabled: 1
    path: Assets/Scenes/Menu.unity
    guid: e61f47b14587d1c4a8c941f99e787afd
  - enabled: 1
    path: Assets/Scenes/DesertScene.unity
    guid: 6ff468d0566594b219df6235d48488ae
  - enabled: 1
    path: Assets/Scenes/RedmartScene.unity
    guid: 5bf3303f581544dca82735486b67af9d
  - enabled: 1
    path: Assets/Scenes/RepearsHeadquarters.unity
    guid: 320fbc57c26ffe446bfc3c14c5eac7a6
  - enabled: 1
    path: Assets/Scenes/FinalScene.unity
    guid: 41b1b9748d5504a7d8ef99b6da634cd2
  - enabled: 1
    path: Assets/Scenes/SecondTimeRedmartScene.unity
    guid: 43d7cf6ae9fb4b1428c3a73c49f1cf5f
  m_configObjects: {}
